Introduction to redist
…
Contiguity of districts and no reliance on partisan or demographic data are built-in to redist. We’ll look at how to specify the desired population deviation (no more than 1% by law) in the next section, and discuss compactness in the simulation section.

Setting up the problem in redist

In redist, a basic redistricting problem is defined by an object of type redist_map, which can be constructed using the eponymous function. The user must provide a vector of population counts (defaults to the pop column, if one exists) and the desired population parity, and the number of districts. The latter can be inferred if a reference redistricting plan exists. For Iowa, we’ll use the adopted 2010 plan as a reference.

iowa_map = redist_map(iowa, existing_plan=cd_2010, pop_tol=0.01, total_pop = pop)
print(iowa_map)
#> A redist_map object with 99 units and 17 fields
#> To be partitioned into 4 districts with population between 761,588.8 - 1.0% and 761,588.8 + 1.0%
#> With geometry:
#>     bbox:           xmin: 4081849 ymin: 2879102 xmax: 5834228 ymax: 4024957
#>     projected CRS:  NAD83(HARN) / Iowa North (ftUS)
#> # A tibble: 99 × 17
#>    fips  name  cd_2010    pop  white black  hisp    vap  wvap  bvap  hvap tot_08
#>  * <chr> <chr>   <int>  <dbl>  <dbl> <dbl> <dbl>  <dbl> <dbl> <dbl> <dbl>  <dbl>
#>  1 19001 Adair       3   7682   7507    11   101   5957  5860     5    53   4053
#>  2 19003 Adams       3   4029   3922     8    37   3180  3109     6    22   2206
#>  3 19005 Alla…       1  14330  13325   109   757  11020 10430    82   425   7059
#>  4 19007 Appa…       2  12887  12470    55   181   9993  9745    40    99   6176
#>  5 19009 Audu…       4   6119   6007     9    37   4780  4714     5    27   3435
#>  6 19011 Bent…       1  26076  25387    93   275  19430 19068    49   155  13712
#>  7 19013 Blac…       1 131090 109968 11493  4907 102594 89541  7677  2865  64775
#>  8 19015 Boone       4  26306  25194   202   505  20027 19448   103   260  13929
#>  9 19017 Brem…       1  24276  23459   186   239  18763 18242   155   137  12871
#> 10 19019 Buch…       1  20958  20344    59   243  15282 14979    32   128  10338
#> # … with 89 more rows, and 5 more variables: dem_08 <dbl>, rep_08 <dbl>,
#> #   region <chr>, geometry <MULTIPOLYGON [US_survey_foot]>, adj <list>
…
By default, redist_smc() prints a good deal of diagnostic information. While verbose, it is important to monitor this output to ensure the algorithm is working properly. The key number to keep an eye on is the resampling effective sample size/resampling efficiency. This number should be as close to the nominal sample size (100%) as possible, and values less than 5–10% generally indicate problems—constraints which are too strong or difficult to satisfy. Here, the resampling efficiencies are above 90% at each stage, which is excellent.

The output from the algorithm is a redist_plans object, which stores a matrix of district assignments for each precinct and simulated plans, and a table of summary statistics for each district and simulated plan. The existing 2010 plan has also been automatically added as a reference plan. Additional reference or comparison plans may be added using add_reference().

print(iowa_plans)
#> 1000 sampled plans and 1 reference plan with 4 districts from a 99-unit map,
#>   drawn using Sequential Monte Carlo
#> With plans resampled from weights
#> Plans matrix: num [1:99, 1:1001] 3 3 1 2 4 1 1 4 1 1 ...
#> # A tibble: 4,004 × 3
#>    draw    district total_pop
#>    <fct>      <int>     <dbl>
#>  1 cd_2010        1    761548
#>  2 cd_2010        2    761624
#>  3 cd_2010        3    761612
#>  4 cd_2010        4    761571
#>  5 1              1    754455
#>  6 1              2    766063
#>  7 1              3    757065
#>  8 1              4    768772
#>  9 2              1    766133
#> 10 2              2    761372
#> # … with 3,994 more rows
…
Analyzing the simulated plans

A redist_plans object, the output of a sampling algorithm, links a matrix of precinct assignments to a table of district statistics, and this linkage makes analyzing the output a breeze.

In problems with a small (generally fewer than 7) number of districts, it may be possible to renumber the simulated districts (which have random numbers in general) to match the reference plan as closely as possible. This adds a pop_overlap column which measures how much of the population is in the same district in both a given plan and the reference plan.

iowa_plans = match_numbers(iowa_plans, iowa_map$cd_2010)
print(iowa_plans)
#> 1000 sampled plans and 1 reference plan with 4 districts from a 99-unit map,
#>   drawn using Sequential Monte Carlo
#> With plans resampled from weights
#> Plans matrix: int [1:99, 1:1001] 3 3 1 2 4 1 1 4 1 1 ...
#> # A tibble: 4,004 × 4
#>    draw    district total_pop pop_overlap
#>    <fct>   <ord>        <dbl>       <dbl>
#>  1 cd_2010 1           761548       1    
#>  2 cd_2010 2           761624       1    
#>  3 cd_2010 3           761612       1    
#>  4 cd_2010 4           761571       1    
#>  5 1       1           768772       0.671
#>  6 1       2           757065       0.671
#>  7 1       3           754455       0.671
#>  8 1       4           766063       0.671
#>  9 2       1           761372       0.765
#> 10 2       2           754957       0.765
#> # … with 3,994 more rows
Then we can add summary statistics by district, using redist’s analysis functions. Here, we’ll compute the population deviation, the perimeter-based compactness measure related to the Iowa Code’s redistricting requirements, and the fraction of minority voters and two-party Democratic vote share by district.

county_perims = redist.prep.polsbypopper(iowa_map, iowa_map$adj)

iowa_plans = iowa_plans %>%
    mutate(pop_dev = abs(total_pop / get_target(iowa_map) - 1),
           comp = distr_compactness(iowa_map, "PolsbyPopper", perim_df=county_perims),
           pct_min = group_frac(iowa_map, vap - wvap, vap),
           pct_dem = group_frac(iowa_map, dem_08, dem_08 + rep_08))
print(iowa_plans)
#> 1000 sampled plans and 1 reference plan with 4 districts from a 99-unit map,
#>   drawn using Sequential Monte Carlo
#> With plans resampled from weights
#> Plans matrix: int [1:99, 1:1001] 3 3 1 2 4 1 1 4 1 1 ...
#> # A tibble: 4,004 × 8
#>    draw    district total_pop pop_overlap   pop_dev  comp pct_min pct_dem
#>    <fct>   <ord>        <dbl>       <dbl>     <dbl> <dbl>   <dbl>   <dbl>
#>  1 cd_2010 1           761548       1     0.0000535 0.302  0.0737   0.592
#>  2 cd_2010 2           761624       1     0.0000463 0.360  0.0968   0.579
#>  3 cd_2010 3           761612       1     0.0000305 0.529  0.114    0.531
#>  4 cd_2010 4           761571       1     0.0000233 0.522  0.0788   0.491
#>  5 1       1           768772       0.671 0.00943   0.448  0.0713   0.591
#>  6 1       2           757065       0.671 0.00594   0.305  0.106    0.589
#>  7 1       3           754455       0.671 0.00937   0.318  0.111    0.538
#>  8 1       4           766063       0.671 0.00587   0.279  0.0749   0.473
#>  9 2       1           761372       0.765 0.000285  0.264  0.0670   0.593
#> 10 2       2           754957       0.765 0.00871   0.262  0.0976   0.582
#> # … with 3,994 more rows

From there, it’s quick to turn these into plan-level summary statistics.

plan_sum = group_by(iowa_plans, draw) %>%
    summarize(max_dev = max(pop_dev),
              avg_comp = mean(comp),
              max_pct_min = max(pct_min),
              dem_distr = sum(pct_dem > 0.5))
print(plan_sum)
#> 1000 sampled plans and 1 reference plan with 4 districts from a 99-unit map,
#>   drawn using Sequential Monte Carlo
#> With plans resampled from weights
#> Plans matrix: int [1:99, 1:1001] 3 3 1 2 4 1 1 4 1 1 ...
#> # A tibble: 1,001 × 5
#>    draw      max_dev avg_comp max_pct_min dem_distr
#>    <fct>       <dbl>    <dbl>       <dbl>     <int>
#>  1 cd_2010 0.0000535    0.428       0.114         3
#>  2 1       0.00943      0.337       0.111         3
#>  3 2       0.00871      0.299       0.121         3
#>  4 3       0.00979      0.482       0.113         3
#>  5 4       0.00576      0.371       0.120         3
#>  6 5       0.00800      0.351       0.124         3
#>  7 6       0.00797      0.331       0.126         3
#>  8 7       0.00652      0.460       0.129         3
#>  9 8       0.00933      0.347       0.122         3
#> 10 9       0.00671      0.406       0.109         3
#> # … with 991 more rows
…
